exercises/ex-2/done/lab9/transcript
# vsim -c -coverage alu_tb -do "run 1000ns; coverage report -memory -cvg -details -file coverage_rep.txt;exit" 
# Start time: 14:39:31 on Feb 09,2018
# ** Note: (vsim-3812) Design is being optimized...
# ** Warning: alu_tb.sv(23): (vopt-2240) Treating stand-alone use of function 'randomize' as an implicit VOID cast.
# //  Questa Sim-64
# //  Version 10.5c linux_x86_64 Jul 20 2016
# //
# //  Copyright 1991-2016 Mentor Graphics Corporation
# //  All Rights Reserved.
# //
# //  QuestaSim and its associated documentation contain trade
# //  secrets and commercial or financial information that are the property of
# //  Mentor Graphics Corporation and are privileged, confidential,
# //  and exempt from disclosure under the Freedom of Information Act,
# //  5 U.S.C. Section 552. Furthermore, this information
# //  is prohibited from disclosure under the Trade Secrets Act,
# //  18 U.S.C. Section 1905.
# //
# Loading sv_std.std
# Loading work.alu_tb_sv_unit(fast)
# Loading work.alu_tb(fast)
# Loading std.standard
# Loading std.textio(body)
# Loading ieee.std_logic_1164(body)
# Loading ieee.numeric_std(body)
# Loading work.alu(behavioral)#1
# run 1000ns
# ** Warning: (vsim-8546) The number of values specified '2' is less than the size '3' of fixed-size array bin 'Hunds' in Coverpoint 'A' of Covergroup instance '\/alu_tb/alu_inst '. The '1' empty bins will not contribute towards coverage.
#    Time: 0 ns  Iteration: 0  Instance: /alu_tb
#         10  clk=1 a=00000000000000000000000000000000 b=00000000000000000000000000000000 op=0000 r=00000000000000000000000000000000
#         30  clk=1 a=00000000000000001000110101000000 b=00000000000000001110010111111001 op=0100 r=00000000000000000000000000000000
#         50  clk=1 a=00000000000000000001001100100000 b=00000000000000001001011011011101 op=0000 r=11111111111111110001001000000110
#         70  clk=1 a=00000000000000001110111111110001 b=00000000000000001001011100001111 op=0011 r=00000000000000001010100111111101
#         90  clk=1 a=00000000000000000000111100010011 b=00000000000000001101111100000111 op=0001 r=11111111111111110111100011111110
#        110  clk=1 a=00000000000000001000001011110010 b=00000000000000000000101000100000 op=0101 r=11111111111111110011000000001100
#        130  clk=1 a=00000000000000001110101000011110 b=00000000000000000011000001101000 op=1000 r=00000000000000000000001000100000
#        150  clk=1 a=00000000000000001101000110101101 b=00000000000000000011101111000111 op=0110 r=00101100010001001011110000110000
#        170  clk=1 a=00000000000000000101111100011011 b=00000000000000001101110011011011 op=1000 r=00000000000000001111101111101111
#        190  clk=1 a=00000000000000001101100100111101 b=00000000000000001000001100111010 op=0011 r=01010010000011001001000000011001
#        210  clk=1 a=00000000000000000000011100100010 b=00000000000000000010111011100100 op=0000 r=11111111111111110111111011000111
#        230  clk=1 a=00000000000000001010101101111011 b=00000000000000000001110110111111 op=0000 r=00000000000000000011011000000110
#        250  clk=1 a=00000000000000000011101001111000 b=00000000000000001010011011111111 op=0011 r=00000000000000001100100100111010
#        270  clk=1 a=00000000000000001010001110001010 b=00000000000000001101000001100000 op=0111 r=11111111111111111101110110000111
#        290  clk=1 a=00000000000000001110011010010101 b=00000000000000000011100110111011 op=0110 r=00000000000000000111001111101010
#        310  clk=1 a=00000000000000001111001000111010 b=00000000000000001101011101010111 op=0001 r=00000000000000001111111110111111
#        330  clk=1 a=00000000000000000011001001100001 b=00000000000000001110001100011010 op=0101 r=00000000000000000001101011100011
#        350  clk=1 a=00000000000000001110101010111110 b=00000000000000000000011111010100 op=1000 r=00000000000000000010001000000000
#        370  clk=1 a=00000000000000001110100110111111 b=00000000000000000011011001101111 op=0111 r=00000111001011011001011101011000
#        390  clk=1 a=00000000000000001100101001010011 b=00000000000000000111001101010000 op=0101 r=00000000000000001101111111010000
#        410  clk=1 a=00000000000000000100110110101000 b=00000000000000001111111011111001 op=0101 r=00000000000000000100001001010000
#        430  clk=1 a=00000000000000000100011100101010 b=00000000000000000101011000010110 op=0111 r=00000000000000000100110010101000
#        450  clk=1 a=00000000000000000011010011101110 b=00000000000000000000001000000010 op=0101 r=00000000000000000001000100111100
#        470  clk=1 a=00000000000000001110000011101110 b=00000000000000001001100110110001 op=0110 r=00000000000000000000000000000010
#        490  clk=1 a=00000000000000000001100011011001 b=00000000000000000101000100001101 op=0011 r=00000000000000001111100111111111
#        510  clk=1 a=00000000000000001101000011011100 b=00000000000000000000111100111000 op=0110 r=11111111111111111110111111110110
#        530  clk=1 a=00000000000000001000010011001011 b=00000000000000000100100010100001 op=0011 r=00000000000000001101111111111100
#        550  clk=1 a=00000000000000001101101001100100 b=00000000000000001100011111101001 op=0110 r=11111111111111111111111101111110
#        570  clk=1 a=00000000000000000110001011101011 b=00000000000000001111000000110001 op=0000 r=00000000000000001101111111101101
#        590  clk=1 a=00000000000000000010001110101011 b=00000000000000001001000010101010 op=1000 r=00000000000000010101001100011100
#        610  clk=1 a=00000000000000001110100010110100 b=00000000000000001111001001010111 op=0110 r=00010100001001111101111110001110
#        630  clk=1 a=00000000000000000010010110101111 b=00000000000000001100101010110111 op=0111 r=00000000000000001111101011110111
#        650  clk=1 a=00000000000000001001101110011000 b=00000000000000001101101111111101 op=0101 r=00000000000000001110111100011000
#        670  clk=1 a=00000000000000000111001110110000 b=00000000000000000010001000101101 op=0010 r=00000000000000001001101110011000
#        690  clk=1 a=00000000000000001010100011010100 b=00000000000000001100011001000110 op=0111 r=11111111111111111000110001001111
#        710  clk=1 a=00000000000000001100011100111110 b=00000000000000000101001001011101 op=0101 r=00000000000000000110111010010010
#        730  clk=1 a=00000000000000001110010101011010 b=00000000000000000000111101110110 op=0001 r=00000000000000000100001000011100
#        750  clk=1 a=00000000000000000010110101110110 b=00000000000000000100101100001000 op=0100 r=00000000000000001101010111100100
#        770  clk=1 a=00000000000000000000100010001100 b=00000000000000000101010101011000 op=0110 r=11111111111111111001000010000001
#        790  clk=1 a=00000000000000001101000011011001 b=00000000000000000001000110011010 op=1000 r=00000000000000000101110111011100
#        810  clk=1 a=00000000000000000111001000111111 b=00000000000000000111011000001011 op=0101 r=00001110010111000000101110001010
#        830  clk=1 a=00000000000000000100111001110001 b=00000000000000000100101100101101 op=0101 r=00000000000000000111001000001011
#        850  clk=1 a=00000000000000000111110010100111 b=00000000000000001111110111001000 op=0101 r=00000000000000000100101000100001
#        870  clk=1 a=00000000000000001100101011110001 b=00000000000000001011100110111100 op=1000 r=00000000000000000111110010000000
#        890  clk=1 a=00000000000000001100111010000111 b=00000000000000001001010110110001 op=0101 r=10010011001111010011000111111100
#        910  clk=1 a=00000000000000000011110111001110 b=00000000000000000000101101001110 op=0000 r=00000000000000001000010010000001
#        930  clk=1 a=00000000000000001000111101010111 b=00000000000000000001000000000010 op=0000 r=00000000000000000100100100011100
#        950  clk=1 a=00000000000000001011110101100000 b=00000000000000001101100001100001 op=0000 r=00000000000000001001111101011001
#        970  clk=1 a=00000000000000000100110010110010 b=00000000000000000011000100101110 op=0101 r=00000000000000011001010111000001
#        990  clk=1 a=00000000000000001001000100111110 b=00000000000000001010000010001101 op=0100 r=00000000000000000000000000100010
#  coverage report -memory -cvg -details -file coverage_rep.txt
# exit
# End time: 14:39:35 on Feb 09,2018, Elapsed time: 0:00:04
# Errors: 0, Warnings: 2
